..............
----------------------------------------------------------------------
Ran 14 tests in 1.139s

OK
Name             Stmts   Miss Branch BrPart  Cover   Missing
------------------------------------------------------------
Collatz.py          43      0     14      0   100%
TestCollatz.py      63      0      0      0   100%
------------------------------------------------------------
TOTAL              106      0     14      0   100%
