1 10 20
100 200 125
201 210 89
900 1000 174
1000 900 174
1 1 1
999999 999999 259
4 5 6
2 1 2
999998 999999 259
10010 90210 351
12010 90210 351
10010 50400 324
12010 50400 324
1 999999 525
999999 1 525
5000 7000 262
5000 7001 262
5000 6999 262
4999 6999 262
4999 6998 262
5000 5999 236
4999 5000 91
4999 5999 236
5000 6000 236
3559 215 217
5156 4404 210
3429 3411 150
99 5441 238
1803 3796 238
55 7976 262
4635 2914 238
2257 2241 139
2704 1546 209
8793 141 262
2344 1466 183
6207 1716 262
862 5561 238
706 3927 238
9677 4486 262
6024 6931 262
4878 2482 238
696 8294 262
5108 1535 238
5016 625 238
7985 9515 260
387 2762 209
5738 2298 238
5392 5490 192
4803 4581 197
6218 7463 257
4297 2441 238
3149 2949 186
3477 6240 262
4536 2093 238
6334 1133 262
3475 8562 262
852 2461 183
6239 1727 262
2645 7303 262
5794 5115 236
6534 7935 257
3819 43 238
5356 1086 238
7694 4745 262
3291 5036 238
7760 3521 262
4549 187 238
6584 2143 262
2955 6265 262
2065 9633 262
6534 5130 262
207 3475 217
2646 5433 238
3183 9581 262
181252 410276 449
923305 295839 525
208236 421093 449
543855 328246 470
741928 975747 525
979111 88499 525
368035 116552 443
244262 300523 407
781885 622325 509
167310 53661 383
150252 341802 443
274554 995138 525
921890 508402 525
138059 971079 525
407184 976392 525
545916 608526 452
777749 239584 509
830527 678931 504
845538 932173 476
557659 518515 452
264276 942669 525
153573 735894 509
160499 20950 383
841458 637172 525
716973 171582 509
969620 373350 525
732175 635866 504
535609 683797 509
123620 391198 443
202265 180783 360
250502 272198 407
441759 180084 449
823172 739053 468
10778 31894 308
912071 986323 507
775690 721167 468
823274 41387 509
354384 268177 441
52722 823905 509
736089 334207 509
485724 638217 509
556650 48509 470
886138 429075 525
375112 313986 441
540441 903750 525
251111 669367 509
492994 101311 449
411159 937213 525
146153 689433 509
988194 558005 525
292149 810729 509
679835 152555 509
600745 508796 470
419625 322051 449
739260 908068 525
288999 899978 525
590894 315136 470
770141 919608 525
548226 651645 509
628875 437772 509
820066 705835 468
525446 547791 452
312385 808230 509
633661 210133 509
259287 227112 443
894202 381160 525
725363 164735 509
739267 511882 509
196939 51371 383
125633 428141 449
202139 642344 509
367776 524744 470
30448 863782 525
545771 754377 509
